sim/mcu_top.vcd
$date
	Tue May 19 15:30:33 2026
$end
$version
	Icarus Verilog
$end
$timescale
	1ps
$end
$scope module mcu_tb $end
$var reg 1 ! clk $end
$var reg 1 " rst_n $end
$scope module u_dut $end
$var wire 1 # axil_bridge_awready $end
$var wire 1 $ axil_bridge_wready $end
$var wire 1 ! clk_i $end
$var wire 32 % m_axi_awaddr [31:0] $end
$var wire 8 & m_axi_awid [7:0] $end
$var wire 1 ' m_axi_awvalid $end
$var wire 1 ( m_axi_bready $end
$var wire 32 ) m_axi_wdata [31:0] $end
$var wire 1 * m_axi_wvalid $end
$var wire 1 " rst_ni $end
$var wire 1 + m_axi_wready $end
$var wire 1 , m_axi_awready $end
$var wire 1 - axil_bridge_wvalid $end
$var wire 32 . axil_bridge_wdata [31:0] $end
$var wire 1 / axil_bridge_bready $end
$var wire 1 0 axil_bridge_awvalid $end
$var wire 32 1 axil_bridge_awaddr [31:0] $end
$var parameter 32 2 ADDR_WIDTH $end
$var parameter 32 3 AXIL_DATA_WIDTH $end
$var parameter 32 4 AXI_DATA_WIDTH $end
$var parameter 32 5 DATA_WIDTH $end
$scope module u_axi_to_axil_bridge $end
$var wire 1 ! clk $end
$var wire 1 6 m_axil_arready $end
$var wire 1 # m_axil_awready $end
$var wire 2 7 m_axil_bresp [1:0] $end
$var wire 1 8 m_axil_bvalid $end
$var wire 32 9 m_axil_rdata [31:0] $end
$var wire 2 : m_axil_rresp [1:0] $end
$var wire 1 ; m_axil_rvalid $end
$var wire 1 $ m_axil_wready $end
$var wire 1 " rst $end
$var wire 32 < s_axi_araddr [31:0] $end
$var wire 2 = s_axi_arburst [1:0] $end
$var wire 4 > s_axi_arcache [3:0] $end
$var wire 8 ? s_axi_arid [7:0] $end
$var wire 8 @ s_axi_arlen [7:0] $end
$var wire 1 A s_axi_arlock $end
$var wire 3 B s_axi_arprot [2:0] $end
$var wire 3 C s_axi_arsize [2:0] $end
$var wire 1 D s_axi_arvalid $end
$var wire 32 E s_axi_awaddr [31:0] $end
$var wire 2 F s_axi_awburst [1:0] $end
$var wire 4 G s_axi_awcache [3:0] $end
$var wire 8 H s_axi_awid [7:0] $end
$var wire 8 I s_axi_awlen [7:0] $end
$var wire 1 J s_axi_awlock $end
$var wire 3 K s_axi_awprot [2:0] $end
$var wire 3 L s_axi_awsize [2:0] $end
$var wire 1 ' s_axi_awvalid $end
$var wire 1 ( s_axi_bready $end
$var wire 1 M s_axi_rready $end
$var wire 32 N s_axi_wdata [31:0] $end
$var wire 1 O s_axi_wlast $end
$var wire 4 P s_axi_wstrb [3:0] $end
$var wire 1 * s_axi_wvalid $end
$var wire 1 + s_axi_wready $end
$var wire 1 Q s_axi_rvalid $end
$var wire 2 R s_axi_rresp [1:0] $end
$var wire 1 S s_axi_rlast $end
$var wire 8 T s_axi_rid [7:0] $end
$var wire 32 U s_axi_rdata [31:0] $end
$var wire 1 V s_axi_bvalid $end
$var wire 2 W s_axi_bresp [1:0] $end
$var wire 8 X s_axi_bid [7:0] $end
$var wire 1 , s_axi_awready $end
$var wire 1 Y s_axi_arready $end
$var wire 1 - m_axil_wvalid $end
$var wire 4 Z m_axil_wstrb [3:0] $end
$var wire 32 [ m_axil_wdata [31:0] $end
$var wire 1 \ m_axil_rready $end
$var wire 1 / m_axil_bready $end
$var wire 1 0 m_axil_awvalid $end
$var wire 3 ] m_axil_awprot [2:0] $end
$var wire 32 ^ m_axil_awaddr [31:0] $end
$var wire 1 _ m_axil_arvalid $end
$var wire 3 ` m_axil_arprot [2:0] $end
$var wire 32 a m_axil_araddr [31:0] $end
$var parameter 32 b ADDR_WIDTH $end
$var parameter 32 c AXIL_DATA_WIDTH $end
$var parameter 32 d AXIL_STRB_WIDTH $end
$var parameter 32 e AXI_DATA_WIDTH $end
$var parameter 32 f AXI_ID_WIDTH $end
$var parameter 32 g AXI_STRB_WIDTH $end
$var parameter 32 h CONVERT_BURST $end
$var parameter 32 i CONVERT_NARROW_BURST $end
$scope module axi_axil_adapter_rd_inst $end
$var wire 1 ! clk $end
$var wire 32 j m_axil_araddr [31:0] $end
$var wire 3 k m_axil_arprot [2:0] $end
$var wire 1 6 m_axil_arready $end
$var wire 1 _ m_axil_arvalid $end
$var wire 32 l m_axil_rdata [31:0] $end
$var wire 1 \ m_axil_rready $end
$var wire 2 m m_axil_rresp [1:0] $end
$var wire 1 ; m_axil_rvalid $end
$var wire 1 " rst $end
$var wire 32 n s_axi_araddr [31:0] $end
$var wire 2 o s_axi_arburst [1:0] $end
$var wire 4 p s_axi_arcache [3:0] $end
$var wire 8 q s_axi_arid [7:0] $end
$var wire 8 r s_axi_arlen [7:0] $end
$var wire 1 A s_axi_arlock $end
$var wire 3 s s_axi_arprot [2:0] $end
$var wire 1 Y s_axi_arready $end
$var wire 3 t s_axi_arsize [2:0] $end
$var wire 1 D s_axi_arvalid $end
$var wire 32 u s_axi_rdata [31:0] $end
$var wire 8 v s_axi_rid [7:0] $end
$var wire 1 S s_axi_rlast $end
$var wire 1 M s_axi_rready $end
$var wire 2 w s_axi_rresp [1:0] $end
$var wire 1 Q s_axi_rvalid $end
$var parameter 32 x ADDR_WIDTH $end
$var parameter 32 y AXIL_ADDR_BIT_OFFSET $end
$var parameter 32 z AXIL_BURST_SIZE $end
$var parameter 32 { AXIL_DATA_WIDTH $end
$var parameter 32 | AXIL_STRB_WIDTH $end
$var parameter 32 } AXIL_WORD_SIZE $end
$var parameter 32 ~ AXIL_WORD_WIDTH $end
$var parameter 32 !" AXI_ADDR_BIT_OFFSET $end
$var parameter 32 "" AXI_BURST_SIZE $end
$var parameter 32 #" AXI_DATA_WIDTH $end
$var parameter 32 $" AXI_ID_WIDTH $end
$var parameter 32 %" AXI_STRB_WIDTH $end
$var parameter 32 &" AXI_WORD_SIZE $end
$var parameter 32 '" AXI_WORD_WIDTH $end
$var parameter 32 (" CONVERT_BURST $end
$var parameter 32 )" CONVERT_NARROW_BURST $end
$var parameter 32 *" DATA_WIDTH $end
$var parameter 1 +" EXPAND $end
$var parameter 32 ," SEGMENT_COUNT $end
$var parameter 32 -" SEGMENT_DATA_WIDTH $end
$var parameter 32 ." SEGMENT_STRB_WIDTH $end
$var parameter 2 /" STATE_DATA $end
$var parameter 2 0" STATE_DATA_READ $end
$var parameter 2 1" STATE_DATA_SPLIT $end
$var parameter 2 2" STATE_IDLE $end
$var parameter 32 3" STRB_WIDTH $end
$var reg 32 4" addr_next [31:0] $end
$var reg 32 5" addr_reg [31:0] $end
$var reg 8 6" burst_next [7:0] $end
$var reg 8 7" burst_reg [7:0] $end
$var reg 3 8" burst_size_next [2:0] $end
$var reg 3 9" burst_size_reg [2:0] $end
$var reg 32 :" data_next [31:0] $end
$var reg 32 ;" data_reg [31:0] $end
$var reg 8 <" id_next [7:0] $end
$var reg 8 =" id_reg [7:0] $end
$var reg 32 >" m_axil_araddr_next [31:0] $end
$var reg 32 ?" m_axil_araddr_reg [31:0] $end
$var reg 3 @" m_axil_arprot_next [2:0] $end
$var reg 3 A" m_axil_arprot_reg [2:0] $end
$var reg 1 B" m_axil_arvalid_next $end
$var reg 1 C" m_axil_arvalid_reg $end
$var reg 1 D" m_axil_rready_next $end
$var reg 1 E" m_axil_rready_reg $end
$var reg 8 F" master_burst_next [7:0] $end
$var reg 8 G" master_burst_reg [7:0] $end
$var reg 3 H" master_burst_size_next [2:0] $end
$var reg 3 I" master_burst_size_reg [2:0] $end
$var reg 2 J" resp_next [1:0] $end
$var reg 2 K" resp_reg [1:0] $end
$var reg 1 L" s_axi_arready_next $end
$var reg 1 M" s_axi_arready_reg $end
$var reg 32 N" s_axi_rdata_next [31:0] $end
$var reg 32 O" s_axi_rdata_reg [31:0] $end
$var reg 8 P" s_axi_rid_next [7:0] $end
$var reg 8 Q" s_axi_rid_reg [7:0] $end
$var reg 1 R" s_axi_rlast_next $end
$var reg 1 S" s_axi_rlast_reg $end
$var reg 2 T" s_axi_rresp_next [1:0] $end
$var reg 2 U" s_axi_rresp_reg [1:0] $end
$var reg 1 V" s_axi_rvalid_next $end
$var reg 1 W" s_axi_rvalid_reg $end
$var reg 2 X" state_next [1:0] $end
$var reg 2 Y" state_reg [1:0] $end
$upscope $end
$scope module axi_axil_adapter_wr_inst $end
$var wire 1 ! clk $end
$var wire 32 Z" m_axil_awaddr [31:0] $end
$var wire 3 [" m_axil_awprot [2:0] $end
$var wire 1 # m_axil_awready $end
$var wire 1 0 m_axil_awvalid $end
$var wire 1 / m_axil_bready $end
$var wire 2 \" m_axil_bresp [1:0] $end
$var wire 1 8 m_axil_bvalid $end
$var wire 32 ]" m_axil_wdata [31:0] $end
$var wire 1 $ m_axil_wready $end
$var wire 4 ^" m_axil_wstrb [3:0] $end
$var wire 1 - m_axil_wvalid $end
$var wire 1 " rst $end
$var wire 32 _" s_axi_awaddr [31:0] $end
$var wire 2 `" s_axi_awburst [1:0] $end
$var wire 4 a" s_axi_awcache [3:0] $end
$var wire 8 b" s_axi_awid [7:0] $end
$var wire 8 c" s_axi_awlen [7:0] $end
$var wire 1 J s_axi_awlock $end
$var wire 3 d" s_axi_awprot [2:0] $end
$var wire 1 , s_axi_awready $end
$var wire 3 e" s_axi_awsize [2:0] $end
$var wire 1 ' s_axi_awvalid $end
$var wire 8 f" s_axi_bid [7:0] $end
$var wire 1 ( s_axi_bready $end
$var wire 2 g" s_axi_bresp [1:0] $end
$var wire 1 V s_axi_bvalid $end
$var wire 32 h" s_axi_wdata [31:0] $end
$var wire 1 O s_axi_wlast $end
$var wire 1 + s_axi_wready $end
$var wire 4 i" s_axi_wstrb [3:0] $end
$var wire 1 * s_axi_wvalid $end
$var parameter 32 j" ADDR_WIDTH $end
$var parameter 32 k" AXIL_ADDR_BIT_OFFSET $end
$var parameter 32 l" AXIL_BURST_SIZE $end
$var parameter 32 m" AXIL_DATA_WIDTH $end
$var parameter 32 n" AXIL_STRB_WIDTH $end
$var parameter 32 o" AXIL_WORD_SIZE $end
$var parameter 32 p" AXIL_WORD_WIDTH $end
$var parameter 32 q" AXI_ADDR_BIT_OFFSET $end
$var parameter 32 r" AXI_BURST_SIZE $end
$var parameter 32 s" AXI_DATA_WIDTH $end
$var parameter 32 t" AXI_ID_WIDTH $end
$var parameter 32 u" AXI_STRB_WIDTH $end
$var parameter 32 v" AXI_WORD_SIZE $end
$var parameter 32 w" AXI_WORD_WIDTH $end
$var parameter 32 x" CONVERT_BURST $end
$var parameter 32 y" CONVERT_NARROW_BURST $end
$var parameter 32 z" DATA_WIDTH $end
$var parameter 1 {" EXPAND $end
$var parameter 32 |" SEGMENT_COUNT $end
$var parameter 32 }" SEGMENT_DATA_WIDTH $end
$var parameter 32 ~" SEGMENT_STRB_WIDTH $end
$var parameter 2 !# STATE_DATA $end
$var parameter 2 "# STATE_DATA_2 $end
$var parameter 2 ## STATE_IDLE $end
$var parameter 2 $# STATE_RESP $end
$var parameter 32 %# STRB_WIDTH $end
$var reg 32 &# addr_next [31:0] $end
$var reg 32 '# addr_reg [31:0] $end
$var reg 1 (# burst_active_next $end
$var reg 1 )# burst_active_reg $end
$var reg 8 *# burst_next [7:0] $end
$var reg 8 +# burst_reg [7:0] $end
$var reg 3 ,# burst_size_next [2:0] $end
$var reg 3 -# burst_size_reg [2:0] $end
$var reg 1 .# convert_burst_next $end
$var reg 1 /# convert_burst_reg $end
$var reg 32 0# data_next [31:0] $end
$var reg 32 1# data_reg [31:0] $end
$var reg 1 2# first_transfer_next $end
$var reg 1 3# first_transfer_reg $end
$var reg 8 4# id_next [7:0] $end
$var reg 8 5# id_reg [7:0] $end
$var reg 1 6# last_segment_next $end
$var reg 1 7# last_segment_reg $end
$var reg 32 8# m_axil_awaddr_next [31:0] $end
$var reg 32 9# m_axil_awaddr_reg [31:0] $end
$var reg 3 :# m_axil_awprot_next [2:0] $end
$var reg 3 ;# m_axil_awprot_reg [2:0] $end
$var reg 1 <# m_axil_awvalid_next $end
$var reg 1 =# m_axil_awvalid_reg $end
$var reg 1 ># m_axil_bready_next $end
$var reg 1 ?# m_axil_bready_reg $end
$var reg 32 @# m_axil_wdata_next [31:0] $end
$var reg 32 A# m_axil_wdata_reg [31:0] $end
$var reg 4 B# m_axil_wstrb_next [3:0] $end
$var reg 4 C# m_axil_wstrb_reg [3:0] $end
$var reg 1 D# m_axil_wvalid_next $end
$var reg 1 E# m_axil_wvalid_reg $end
$var reg 3 F# master_burst_size_next [2:0] $end
$var reg 3 G# master_burst_size_reg [2:0] $end
$var reg 1 H# s_axi_awready_next $end
$var reg 1 I# s_axi_awready_reg $end
$var reg 8 J# s_axi_bid_next [7:0] $end
$var reg 8 K# s_axi_bid_reg [7:0] $end
$var reg 2 L# s_axi_bresp_next [1:0] $end
$var reg 2 M# s_axi_bresp_reg [1:0] $end
$var reg 1 N# s_axi_bvalid_next $end
$var reg 1 O# s_axi_bvalid_reg $end
$var reg 1 P# s_axi_wready_next $end
$var reg 1 Q# s_axi_wready_reg $end
$var reg 2 R# state_next [1:0] $end
$var reg 2 S# state_reg [1:0] $end
$var reg 4 T# strb_next [3:0] $end
$var reg 4 U# strb_reg [3:0] $end
$upscope $end
$upscope $end
$scope module u_vfifo $end
$var wire 1 ! clk $end
$var wire 32 V# din [31:0] $end
$var wire 1 " rst_n $end
$var wire 1 * wr_en $end
$var wire 1 W# full $end
$var wire 1 X# empty $end
$var parameter 32 Y# DATA_WIDTH $end
$var parameter 32 Z# DEPTH $end
$var reg 32 [# dout [31:0] $end
$var reg 4 \# head [3:0] $end
$var reg 4 ]# tail [3:0] $end
$upscope $end
$upscope $end
$upscope $end
$enddefinitions $end
$comment Show the parameter values. $end
$dumpall
b10000 Z#
b100000 Y#
b100 %#
b11 $#
b0 ##
b10 "#
b1 !#
b100 ~"
b100000 }"
b1 |"
0{"
b100000 z"
b0 y"
b1 x"
b100 w"
b1000 v"
b100 u"
b1000 t"
b100000 s"
b10 r"
b10 q"
b100 p"
b1000 o"
b100 n"
b100000 m"
b10 l"
b10 k"
b100000 j"
b100 3"
b0 2"
b11 1"
b10 0"
b1 /"
b100 ."
b100000 -"
b1 ,"
0+"
b100000 *"
b0 )"
b1 ("
b100 '"
b1000 &"
b100 %"
b1000 $"
b100000 #"
b10 ""
b10 !"
b100 ~
b1000 }
b100 |
b100000 {
b10 z
b10 y
b100000 x
b0 i
b1 h
b100 g
b1000 f
b100000 e
b100 d
b100000 c
b100000 b
b100000 5
b100000 4
b100000 3
b100000 2
$end
#0
$dumpvars
b0 ]#
b0 \#
bx [#
1X#
0W#
b0 V#
b0 U#
b0 T#
b0 S#
b0 R#
0Q#
0P#
0O#
0N#
b0 M#
b0 L#
b0 K#
b0 J#
0I#
1H#
b0 G#
b0 F#
0E#
0D#
b0 C#
b0 B#
b0 A#
b0 @#
0?#
0>#
0=#
0<#
b0 ;#
b0 :#
b0 9#
b0 8#
07#
06#
b0 5#
b0 4#
03#
12#
b0 1#
b0 0#
0/#
0.#
b0 -#
b0 ,#
b0 +#
b0 *#
0)#
0(#
b0 '#
b0 &#
bz i"
b0 h"
b0 g"
b0 f"
bz e"
bz d"
bz c"
b0 b"
bz a"
bz `"
b0 _"
b0 ^"
b0 ]"
bz \"
b0 ["
b0 Z"
b0 Y"
b0 X"
0W"
0V"
b0 U"
b0 T"
0S"
0R"
b0 Q"
b0 P"
b0 O"
b0 N"
0M"
1L"
b0 K"
b0 J"
b0 I"
b0 H"
b0 G"
b0 F"
0E"
0D"
0C"
0B"
b0 A"
b0 @"
b0 ?"
b0 >"
b0 ="
b0 <"
b0 ;"
b0 :"
b0 9"
b0 8"
b0 7"
b0 6"
b0 5"
b0 4"
b0 w
b0 v
b0 u
bz t
bz s
bz r
bz q
bz p
bz o
bz n
bz m
bz l
b0 k
b0 j
b0 a
b0 `
0_
b0 ^
b0 ]
0\
b0 [
b0 Z
0Y
b0 X
b0 W
0V
b0 U
b0 T
0S
b0 R
0Q
bz P
zO
b0 N
zM
bz L
bz K
zJ
bz I
b0 H
bz G
bz F
b0 E
zD
bz C
bz B
zA
bz @
bz ?
bz >
bz =
bz <
z;
bz :
bz 9
z8
bz 7
z6
b0 1
00
0/
b0 .
0-
0,
0+
0*
b0 )
1(
0'
b0 &
b0 %
1$
1#
0"
0!
$end
#5000
1H#
1L"
1,
1I#
13#
1Y
1M"
1!
#10000
0!
#15000
1!
#20000
0!
1"
#25000
1H#
1L"
0,
0I#
0Y
0M"
1!
#30000
0!
#35000
1L"
1H#
0Y
0M"
0,
0I#
1!
#40000
0!
#45000
1H#
1L"
0,
0I#
0Y
0M"
1!
#50000
0!
#55000
1L"
1H#
0Y
0M"
0,
0I#
1!
#60000
0!
#65000
1H#
1L"
0,
0I#
0Y
0M"
1!
#70000
0!
#75000
1L"
1H#
0Y
0M"
0,
0I#
1!
#80000
0!
#85000
1H#
1L"
0,
0I#
0Y
0M"
1!
#90000
0!
#95000
1L"
1H#
0Y
0M"
0,
0I#
1!
#100000
0!
#105000
1H#
1L"
0,
0I#
0Y
0M"
1!
#110000
0!
#115000
1L"
1H#
0Y
0M"
0,
0I#
1!
#120000
0!
#125000
1H#
1L"
0,
0I#
0Y
0M"
1!
#130000
0!
#135000
1L"
1H#
0Y
0M"
0,
0I#
1!
#140000
0!
#145000
1H#
1L"
0,
0I#
0Y
0M"
1!
#150000
0!
#155000
1L"
1H#
0Y
0M"
0,
0I#
1!
#160000
0!
#165000
1H#
1L"
0,
0I#
0Y
0M"
1!
#170000
0!
#175000
1L"
1H#
0Y
0M"
0,
0I#
1!
#180000
0!
#185000
1H#
1L"
0,
0I#
0Y
0M"
1!
#190000
0!
#195000
1L"
1H#
0Y
0M"
0,
0I#
1!
#200000
0!
#205000
1H#
1L"
0,
0I#
0Y
0M"
1!
#210000
0!
#215000
1L"
1H#
0Y
0M"
0,
0I#
1!
#220000
0!
#225000
1H#
1L"
0,
0I#
0Y
0M"
1!
#230000
0!
#235000
1L"
1H#
0Y
0M"
0,
0I#
1!
#240000
0!
#245000
1H#
1L"
0,
0I#
0Y
0M"
1!
#250000
0!
#255000
1L"
1H#
0Y
0M"
0,
0I#
1!
#260000
0!
#265000
1H#
1L"
0,
0I#
0Y
0M"
1!
#270000
0!
#275000
1L"
1H#
0Y
0M"
0,
0I#
1!
#280000
0!
#285000
1H#
1L"
0,
0I#
0Y
0M"
1!
#290000
0!
#295000
1L"
1H#
0Y
0M"
0,
0I#
1!
